<?xml version="1.0" encoding="utf-8"?>
<!-- Generator: Adobe Illustrator 16.0.0, SVG Export Plug-In . SVG Version: 6.00 Build 0)  -->
<!DOCTYPE svg PUBLIC "-//W3C//DTD SVG 1.1//EN" "http://www.w3.org/Graphics/SVG/1.1/DTD/svg11.dtd">
<svg version="1.1" id="Livello_1" xmlns="http://www.w3.org/2000/svg" xmlns:xlink="http://www.w3.org/1999/xlink" x="0px" y="0px"
	 width="196px" height="51px" viewBox="0 0 196 51" enable-background="new 0 0 196 51" xml:space="preserve">
<g>
	<path fill="#AF5196" d="M98.127,27.788c-7.879,0-11.928-4.05-15.5-7.622c-3.423-3.423-6.379-6.379-12.5-6.379
		c-1.171,0-2.121-0.949-2.121-2.121s0.95-2.121,2.121-2.121c7.879,0,11.928,4.049,15.5,7.621c3.423,3.423,6.379,6.379,12.5,6.379
		c1.171,0,2.121,0.949,2.121,2.121C100.248,26.838,99.299,27.788,98.127,27.788z"/>
</g>
<g>
	<path fill="#AF5196" d="M42.086,41.788c-1.171,0-2.121-0.949-2.121-2.121s0.95-2.121,2.121-2.121c6.121,0,9.077-2.957,12.5-6.379
		c3.572-3.572,7.621-7.622,15.5-7.622c1.171,0,2.121,0.949,2.121,2.121c0,1.172-0.95,2.122-2.121,2.122
		c-6.121,0-9.077,2.955-12.5,6.379C54.014,37.738,49.965,41.788,42.086,41.788z"/>
</g>
<g>
	<path fill="#AF5196" d="M97.914,41.788c-1.171,0-2.121-0.949-2.121-2.121s0.95-2.121,2.121-2.121c6.121,0,9.077-2.957,12.5-6.379
		c3.572-3.572,7.622-7.622,15.5-7.622c1.171,0,2.121,0.949,2.121,2.121c0,1.172-0.95,2.122-2.121,2.122
		c-6.122,0-9.078,2.955-12.5,6.379C109.841,37.738,105.792,41.788,97.914,41.788z"/>
</g>
<g>
	<path fill="#AF5196" d="M154.148,27.788c-7.879,0-11.928-4.05-15.5-7.622c-3.424-3.423-6.379-6.379-12.5-6.379
		c-1.172,0-2.121-0.949-2.121-2.121s0.949-2.121,2.121-2.121c7.879,0,11.928,4.049,15.5,7.621c3.422,3.423,6.379,6.379,12.5,6.379
		c1.172,0,2.121,0.949,2.121,2.121C156.27,26.838,155.32,27.788,154.148,27.788z"/>
</g>
<g>
	<path fill="#AF5196" d="M153.934,41.788c-1.172,0-2.121-0.949-2.121-2.121s0.949-2.121,2.121-2.121c6.121,0,9.078-2.957,12.5-6.379
		c3.572-3.572,7.623-7.622,15.502-7.622c1.172,0,2.121,0.949,2.121,2.121c0,1.172-0.949,2.122-2.121,2.122
		c-6.123,0-9.078,2.955-12.502,6.379C165.861,37.738,161.812,41.788,153.934,41.788z"/>
</g>
<g>
	<path fill="#AF5196" d="M42.086,27.788c-7.879,0-11.928-4.05-15.5-7.622c-3.423-3.423-6.379-6.379-12.5-6.379
		c-1.171,0-2.121-0.949-2.121-2.121s0.95-2.121,2.121-2.121c7.879,0,11.928,4.049,15.5,7.621c3.423,3.423,6.379,6.379,12.5,6.379
		c1.171,0,2.121,0.949,2.121,2.121C44.207,26.838,43.257,27.788,42.086,27.788z"/>
</g>
<g>
	<path fill="#AF5196" d="M48.958,20.829c-0.543,0-1.086-0.207-1.5-0.621l-7.042-7.042c-0.829-0.828-0.829-2.172,0-3
		c0.828-0.828,2.172-0.828,3,0l7.042,7.042c0.829,0.828,0.829,2.172,0,3C50.044,20.622,49.501,20.829,48.958,20.829z"/>
</g>
<g>
	<path fill="#AF5196" d="M84,41.788c-0.543,0-1.086-0.207-1.5-0.621l-7.062-7.062c-0.829-0.828-0.829-2.172,0-3
		c0.828-0.828,2.172-0.828,3,0l7.062,7.062c0.829,0.828,0.829,2.172,0,3C85.086,41.581,84.543,41.788,84,41.788z"/>
</g>
<g>
	<path fill="#AF5196" d="M105.062,20.724c-0.543,0-1.086-0.207-1.5-0.621l-6.936-6.937c-0.829-0.828-0.829-2.172,0-3
		c0.828-0.828,2.172-0.828,3,0l6.936,6.937c0.83,0.828,0.83,2.172,0,3C106.148,20.517,105.605,20.724,105.062,20.724z"/>
</g>
<g>
	<path fill="#AF5196" d="M140,41.788c-0.543,0-1.086-0.207-1.5-0.621l-7-7c-0.828-0.828-0.828-2.172,0-3s2.172-0.828,3,0l7,7
		c0.828,0.828,0.828,2.172,0,3C141.086,41.581,140.543,41.788,140,41.788z"/>
</g>
<g>
	<path fill="#AF5196" d="M161.042,20.682c-0.543,0-1.086-0.207-1.5-0.621l-6.894-6.895c-0.828-0.828-0.828-2.172,0-3
		s2.172-0.828,3,0l6.894,6.895c0.828,0.828,0.828,2.172,0,3C162.128,20.475,161.585,20.682,161.042,20.682z"/>
</g>
<g>
	<path fill="#AF5196" d="M28,41.788c-0.543,0-1.086-0.207-1.5-0.621l-7.031-7.031c-0.829-0.828-0.829-2.172,0-3
		c0.828-0.828,2.172-0.828,3,0l7.031,7.031c0.829,0.828,0.829,2.172,0,3C29.086,41.581,28.543,41.788,28,41.788z"/>
</g>
</svg>
